<?xml version="1.0" encoding="utf-8"?>
<!-- Generator: Adobe Illustrator 23.0.3, SVG Export Plug-In . SVG Version: 6.00 Build 0)  -->
<svg version="1.1" id="CALVI" xmlns="http://www.w3.org/2000/svg" xmlns:xlink="http://www.w3.org/1999/xlink" x="0px" y="0px"
	 viewBox="0 0 142.6 51.2" style="enable-background:new 0 0 142.6 51.2;" xml:space="preserve">
<style type="text/css">
	.st0{fill:#4C5559;}
</style>
<title>CALVI</title>
<path class="st0" d="M15.5,41c-4,0.2-7.9-1.6-10.5-4.7c-2.3-3.1-3.6-6.8-3.5-10.7c0-7.7,4.3-15.4,14-15.4c3.5,0,6.9,1.4,9.4,3.9
	l0.1,0.1l-2.2,2.2l-0.1-0.2c-1.7-2.2-4.3-3.4-7.1-3.3c-5,0-10.8,3.3-10.8,12.6s5.8,12.6,10.8,12.6c2.9,0.1,5.6-1.3,7.2-3.7l0.1-0.2
	l2.2,2.2L25,36.5C22.7,39.4,19.2,41.1,15.5,41 M60.7,40.3h-3.4l-3.5-9H43.2l1-2.8h8.5l-5.4-14.2l-10.1,26h-3.4l12-29.5h3.3l0.1,0.1
	L60.7,40.3z M90.4,40.3h-17V10.8h3.1v26.8h13.9V40.3z M111.1,40.3h-3.5l-11-29.5h3.4l9.4,25.8l9.3-25.8h3.4L111.1,40.3z M134.9,10.8
	h3.2v29.6h-3.2V10.8z"/>
</svg>
