[{
    "head": [
    	{
            "label": "Date",
            "sortable": true,
            "sort-type": "date"
        },
    	{
            "label": "Invoice number",
            "sortable": true,
            "sort-type": "number"
        },
    	{
            "label": "Customer account",
            "sortable": false,
            "sort-type": "string"
        },
    	{
            "label": "Amount",
            "sortable": false,
            "sort-type": "amount"
        },
    	{
            "label": "",
            "sortable": false,
            "sort-type": ""
        },
    	{
            "label": "",
            "sortable": false,
            "sort-type": ""
        },
    	{
            "label": "",
            "sortable": false,
            "sort-type": ""
        }
    ],
    "body": [
        [
            {
                "data": "01-01-2018"
            },
            {
                "link": {
                    "path": "/a-path",
                    "label": "200001"
                }
            },
            {
                "data": "Tooltime Netherlands"
            },
            {
                "amount": "24.711,15",
                "currency-symbol": "&euro;"
            },
            {
                "context-menu": {
                    "id": "context-menu-01",
                    "button": {
                        "label": "Action"
                    },
                    "items": [
                        {
                            "path": "action 1",
                            "label": "action 1"
                        },
                        {
                            "path": "action 2",
                            "label": "action 2"
                        },
                        {
                            "path": "action 3",
                            "label": "action 3"
                        }
                    ]
                }
            },
            {
                "button": {
                    "icon": "icon-quickview",
                    "id": "button-quickview-01",
                    "label": "Quickview",
                    "task": "quickview",
                    "type": "button-ghost-icon"
                }
            },
            {
                "button": {
                    "icon": "icon-drillrow",
                    "id": "button-drillrow-01",
                    "label": "Drillrow",
                    "task": "drillrow",
                    "type": "button-primary-icon"
                }
            }
        ],
        [
            {
                "data": "02-02-2028"
            },
            {
                "link": {
                    "path": "/a-path",
                    "label": "200002"
                }
            },
            {
                "data": "Tooltime Netherlands"
            },
            {
                "amount": "24.711,15",
                "currency-symbol": "&euro;"
            },
            {
                "context-menu": {
                    "id": "context-menu-02",
                    "button": {
                        "label": "Action"
                    },
                    "items": [
                        {
                            "path": "action 1",
                            "label": "action 1"
                        },
                        {
                            "path": "action 2",
                            "label": "action 2"
                        },
                        {
                            "path": "action 3",
                            "label": "action 3"
                        }
                    ]
                }
            },
            {
                "button": {
                    "icon": "icon-quickview",
                    "id": "button-quickview-02",
                    "label": "Quickview",
                    "task": "quickview",
                    "type": "button-ghost-icon"
                }
            },
            {
                "button": {
                    "icon": "icon-drillrow",
                    "id": "button-drillrow-02",
                    "label": "Drillrow",
                    "task": "drillrow",
                    "type": "button-primary-icon"
                }
            }
        ],
        [
            {
                "data": "03-03-2038"
            },
            {
                "link": {
                    "path": "/a-path",
                    "label": "200003"
                }
            },
            {
                "data": "Tooltime Netherlands"
            },
            {
                "amount": "24.711,15",
                "currency-symbol": "&euro;"
            },
            {
                "context-menu": {
                    "id": "context-menu-03",
                    "button": {
                        "label": "Action"
                    },
                    "items": [
                        {
                            "path": "action 1",
                            "label": "action 1"
                        },
                        {
                            "path": "action 2",
                            "label": "action 2"
                        },
                        {
                            "path": "action 3",
                            "label": "action 3"
                        }
                    ]
                }
            },
            {
                "button": {
                    "icon": "icon-quickview",
                    "id": "button-quickview-03",
                    "label": "Quickview",
                    "task": "quickview",
                    "type": "button-ghost-icon"
                }
            },
            {
                "button": {
                    "icon": "icon-drillrow",
                    "id": "button-drillrow-03",
                    "label": "Drillrow",
                    "task": "drillrow",
                    "type": "button-primary-icon"
                }
            }
        ],
        [
            {
                "data": "04-04-2048"
            },
            {
                "link": {
                    "path": "/a-path",
                    "label": "200004"
                }
            },
            {
                "data": "Tooltime Netherlands"
            },
            {
                "amount": "24.711,15",
                "currency-symbol": "&euro;"
            },
            {
                "context-menu": {
                    "id": "context-menu-04",
                    "button": {
                        "label": "Action"
                    },
                    "items": [
                        {
                            "path": "action 1",
                            "label": "action 1"
                        },
                        {
                            "path": "action 2",
                            "label": "action 2"
                        },
                        {
                            "path": "action 3",
                            "label": "action 3"
                        }
                    ]
                }
            },
            {
                "button": {
                    "icon": "icon-quickview",
                    "id": "button-quickview-04",
                    "label": "Quickview",
                    "task": "quickview",
                    "type": "button-ghost-icon"
                }
            },
            {
                "button": {
                    "icon": "icon-drillrow",
                    "id": "button-drillrow-04",
                    "label": "Drillrow",
                    "task": "drillrow",
                    "type": "button-primary-icon"
                }
            }
        ],
        [
            {
                "data": "05-05-2058"
            },
            {
                "link": {
                    "path": "/a-path",
                    "label": "200005"
                }
            },
            {
                "data": "Tooltime Netherlands"
            },
            {
                "amount": "24.711,15",
                "currency-symbol": "&euro;"
            },
            {
                "context-menu": {
                    "id": "context-menu-05",
                    "button": {
                        "label": "Action"
                    },
                    "items": [
                        {
                            "path": "action 1",
                            "label": "action 1"
                        },
                        {
                            "path": "action 2",
                            "label": "action 2"
                        },
                        {
                            "path": "action 3",
                            "label": "action 3"
                        }
                    ]
                }
            },
            {
                "button": {
                    "icon": "icon-quickview",
                    "id": "button-quickview-05",
                    "label": "Quickview",
                    "task": "quickview",
                    "type": "button-ghost-icon"
                }
            },
            {
                "button": {
                    "icon": "icon-drillrow",
                    "id": "button-drillrow-05",
                    "label": "Drillrow",
                    "task": "drillrow",
                    "type": "button-primary-icon"
                }
            }
        ]
    ]
}]
