<?xml version="1.0" encoding="utf-8"?>
<!-- Generator: Adobe Illustrator 22.0.0, SVG Export Plug-In . SVG Version: 6.00 Build 0)  -->
<svg version="1.1" id="Laag_1" xmlns="http://www.w3.org/2000/svg" xmlns:xlink="http://www.w3.org/1999/xlink" x="0px" y="0px"
	 viewBox="0 0 289.9 51.2" style="enable-background:new 0 0 289.9 51.2;" xml:space="preserve">
    <style type="text/css">
    	.st0{fill:#888B8D;}
    	.st1{fill:rgba(0, 0, 0, 0.85);}
    </style>
    <g>
    	<path class="st1" d="M15.5,41c-4.3,0-8-1.6-10.5-4.7c-2.2-2.8-3.5-6.6-3.5-10.7c0-7.7,4.3-15.4,14-15.4c3.7,0,7.2,1.5,9.4,3.9
    		l0.1,0.1l-2.2,2.2l-0.1-0.2c-1.6-2.1-4.2-3.3-7.1-3.3c-5,0-10.8,3.3-10.8,12.6s5.8,12.6,10.8,12.6c3,0,5.5-1.3,7.2-3.7l0.1-0.2
    		l2.2,2.2l-0.1,0.1C22.7,39.5,19.4,41,15.5,41"/>
    	<polygon class="st1" points="60.7,40.3 57.3,40.3 53.8,31.3 43.2,31.3 44.2,28.5 52.7,28.5 47.3,14.3 37.2,40.3 33.8,40.3
    		45.8,10.8 49.1,10.8 49.2,10.9 	"/>
    	<polygon class="st1" points="90.4,40.3 73.4,40.3 73.4,10.8 76.5,10.8 76.5,37.6 90.4,37.6 	"/>
    	<polygon class="st1" points="111.1,40.3 107.6,40.3 96.6,10.8 100,10.8 109.4,36.6 118.7,10.8 122.1,10.8 	"/>
    	<rect x="134.9" y="10.8" class="st1" width="3.2" height="29.6"/>
    </g>
</svg>
